#Quartus_Prime_Project/#Testing_Files/temp/simulation/qsim/demo.msim.vcd
$comment
	File created using the following command:
		vcd file demo.msim.vcd -direction
$end
$date
	Thu May 18 16:56:51 2023
$end
$version
	ModelSim Version 2020.1
$end
$timescale
	1ps
$end

$scope module controlsystemunit_vhd_vec_tst $end
$var wire 1 ! clock $end
$var wire 1 " en_1 $end
$var wire 1 # en_2 $end
$var wire 1 $ en_3 $end
$var wire 1 % extraEn $end
$var wire 1 & freeze $end
$var wire 1 ' freezeEnd $end
$var wire 1 ( freezeStart $end
$var wire 1 ) newPrg $end
$var wire 1 * reset $end
$var wire 1 + rstGlobal $end
$var wire 1 , start $end
$var wire 1 - start_stop $end

$scope module i1 $end
$var wire 1 . gnd $end
$var wire 1 / vcc $end
$var wire 1 0 unknown $end
$var wire 1 1 devoe $end
$var wire 1 2 devclrn $end
$var wire 1 3 devpor $end
$var wire 1 4 ww_devoe $end
$var wire 1 5 ww_devclrn $end
$var wire 1 6 ww_devpor $end
$var wire 1 7 ww_reset $end
$var wire 1 8 ww_clock $end
$var wire 1 9 ww_start $end
$var wire 1 : ww_freezeEnd $end
$var wire 1 ; ww_extraEn $end
$var wire 1 < ww_newPrg $end
$var wire 1 = ww_freeze $end
$var wire 1 > ww_en_1 $end
$var wire 1 ? ww_en_2 $end
$var wire 1 @ ww_en_3 $end
$var wire 1 A ww_start_stop $end
$var wire 1 B ww_freezeStart $end
$var wire 1 C ww_rstGlobal $end
$var wire 1 D \en_1~output_o\ $end
$var wire 1 E \en_2~output_o\ $end
$var wire 1 F \en_3~output_o\ $end
$var wire 1 G \start_stop~output_o\ $end
$var wire 1 H \freezeStart~output_o\ $end
$var wire 1 I \rstGlobal~output_o\ $end
$var wire 1 J \clock~input_o\ $end
$var wire 1 K \reset~input_o\ $end
$var wire 1 L \start~input_o\ $end
$var wire 1 M \reg_fstate.Menu~0_combout\ $end
$var wire 1 N \freeze~input_o\ $end
$var wire 1 O \extraEn~input_o\ $end
$var wire 1 P \newPrg~input_o\ $end
$var wire 1 Q \reg_fstate.Stop~0_combout\ $end
$var wire 1 R \reg_fstate.Stop~1_combout\ $end
$var wire 1 S \fstate.Stop~q\ $end
$var wire 1 T \reg_fstate.Extra~0_combout\ $end
$var wire 1 U \start_stop~0_combout\ $end
$var wire 1 V \reg_fstate.Extra~1_combout\ $end
$var wire 1 W \fstate.Extra~q\ $end
$var wire 1 X \reg_fstate.StartPrg~0_combout\ $end
$var wire 1 Y \reg_fstate.StartPrg~1_combout\ $end
$var wire 1 Z \reg_fstate.Timer~0_combout\ $end
$var wire 1 [ \reg_fstate.Timer~1_combout\ $end
$var wire 1 \ \fstate.Timer~q\ $end
$var wire 1 ] \reg_fstate.StartPrg~2_combout\ $end
$var wire 1 ^ \reg_fstate.TimeProcess~2_combout\ $end
$var wire 1 _ \freezeEnd~input_o\ $end
$var wire 1 ` \reg_fstate.TimeProcess~3_combout\ $end
$var wire 1 a \fstate.TimeProcess~q\ $end
$var wire 1 b \freezeStart~0_combout\ $end
$var wire 1 c \reg_fstate.StartPrg~3_combout\ $end
$var wire 1 d \fstate.StartPrg~q\ $end
$var wire 1 e \reg_fstate.Init~0_combout\ $end
$var wire 1 f \fstate.Init~q\ $end
$var wire 1 g \rstGlobal~0_combout\ $end
$var wire 1 h \reg_fstate.Menu~1_combout\ $end
$var wire 1 i \fstate.Menu~q\ $end
$var wire 1 j \en_1~0_combout\ $end
$var wire 1 k \en_2~0_combout\ $end
$var wire 1 l \en_3~0_combout\ $end
$var wire 1 m \ALT_INV_rstGlobal~0_combout\ $end
$upscope $end
$upscope $end
$enddefinitions $end
#0
$dumpvars
0!
0"
0#
0$
0%
0&
0'
0(
0)
0*
1+
0,
0-
0.
1/
x0
11
12
13
14
15
16
07
08
09
0:
0;
0<
0=
0>
0?
0@
0A
0B
1C
0D
0E
0F
0G
0H
1I
0J
0K
0L
1M
0N
0O
0P
0Q
0R
0S
0T
0U
0V
0W
0X
0Y
0Z
0[
0\
0]
0^
0_
0`
0a
0b
0c
0d
1e
0f
0g
1h
0i
0j
0k
0l
1m
$end
#5000
1!
18
1J
1f
1i
1X
1j
1g
0m
1D
0I
1>
0C
1"
0+
#10000
0!
08
0J
#15000
1!
18
1J
#20000
0!
08
0J
#25000
1!
18
1J
#30000
0!
08
0J
#35000
1!
18
1J
#40000
0!
1,
08
19
1L
0J
0M
1Y
1c
0h
#45000
1!
18
1J
1d
0i
0X
0j
1Q
1U
1R
0Y
0c
1G
0D
1A
0>
1-
0"
#50000
0!
0,
08
09
0L
0J
1M
0R
1]
1c
#55000
1!
18
1J
#60000
0!
08
0J
#65000
1!
18
1J
#70000
0!
08
0J
#75000
1!
18
1J
#80000
0!
1,
08
19
1L
0J
0M
1R
0]
0c
#85000
1!
18
1J
1S
0d
0Q
0U
1Y
1c
0R
0G
0A
0-
#90000
0!
0,
08
09
0L
0J
1M
1R
0Y
0c
#95000
1!
18
1J
#100000
0!
08
0J
#105000
1!
18
1J
#110000
0!
08
0J
#115000
1!
18
1J
#120000
0!
1,
08
19
1L
0J
0M
0R
1Y
1c
#125000
1!
18
1J
0S
1d
1Q
1U
0Y
0c
1R
1G
1A
1-
#130000
0!
0,
08
09
0L
0J
1M
0R
1]
1c
#135000
1!
18
1J
#140000
0!
08
0J
#145000
1!
18
1J
#150000
0!
08
0J
#155000
1!
18
1J
#160000
0!
1%
08
1;
1O
0J
0Q
1V
0]
0c
#165000
1!
18
1J
1W
0d
0U
1T
1X
1k
1E
0G
1?
0A
1#
0-
#170000
0!
0%
08
0;
0O
0J
#175000
1!
18
1J
#180000
0!
08
0J
#185000
1!
18
1J
#190000
0!
1&
08
1=
1N
0J
#195000
1!
18
1J
#200000
0!
0&
1'
1*
08
0=
1:
17
1K
1_
0N
0J
0M
0T
0e
0k
0V
0E
0?
0#
#205000
1!
18
1J
0W
0f
0X
#210000
0!
0'
0*
08
0:
07
0K
0_
0J
1M
1e
0g
1m
1h
1I
1C
1+
#215000
1!
18
1J
1f
1i
1X
1j
1g
0m
1D
0I
1>
0C
1"
0+
#220000
0!
08
0J
#225000
1!
18
1J
#230000
0!
08
0J
#235000
1!
18
1J
#240000
0!
1)
08
1<
1P
0J
#245000
1!
18
1J
#250000
0!
08
0J
#255000
1!
18
1J
#260000
0!
0)
08
0<
0P
0J
#265000
1!
18
1J
#270000
0!
08
0J
#275000
1!
18
1J
#280000
0!
1&
08
1=
1N
0J
0X
1[
0h
#285000
1!
18
1J
1\
0i
0[
1]
1l
1c
1F
1@
1$
#290000
0!
0&
08
0=
0N
0J
1Z
0]
0c
1[
#295000
1!
18
1J
#300000
0!
08
0J
#305000
1!
18
1J
#310000
0!
1&
08
1=
1N
0J
0Z
1]
1c
0[
#315000
1!
18
1J
0\
1d
1Q
1U
0]
0j
0l
0c
1]
1c
0F
0D
1G
0@
0>
1A
0$
0"
1-
#320000
0!
0&
08
0=
0N
0J
#325000
1!
18
1J
#330000
0!
08
0J
#335000
1!
18
1J
#340000
0!
08
0J
#345000
1!
18
1J
#350000
0!
1&
08
1=
1N
0J
#355000
1!
18
1J
#360000
0!
0&
08
0=
0N
0J
#365000
1!
18
1J
#370000
0!
08
0J
#375000
1!
18
1J
#380000
0!
08
0J
#385000
1!
18
1J
#390000
0!
1'
1%
08
1:
1;
1O
1_
0J
0Q
1V
0]
0c
#395000
1!
18
1J
1W
0d
0U
1T
1X
1k
1E
0G
1?
0A
1#
0-
#400000
0!
0'
0%
08
0:
0;
0O
0_
0J
#405000
1!
18
1J
#410000
0!
08
0J
#415000
1!
18
1J
#420000
0!
08
0J
#425000
1!
18
1J
#430000
0!
08
0J
#435000
1!
18
1J
#440000
0!
08
0J
#445000
1!
18
1J
#450000
0!
08
0J
#455000
1!
18
1J
#460000
0!
08
0J
#465000
1!
18
1J
#470000
0!
08
0J
#475000
1!
18
1J
#480000
0!
08
0J
#485000
1!
18
1J
#490000
0!
08
0J
#495000
1!
18
1J
#500000
0!
08
0J
#505000
1!
18
1J
#510000
0!
08
0J
#515000
1!
18
1J
#520000
0!
08
0J
#525000
1!
18
1J
#530000
0!
08
0J
#535000
1!
18
1J
#540000
0!
08
0J
#545000
1!
18
1J
#550000
0!
08
0J
#555000
1!
18
1J
#560000
0!
08
0J
#565000
1!
18
1J
#570000
0!
08
0J
#575000
1!
18
1J
#580000
0!
08
0J
#585000
1!
18
1J
#590000
0!
08
0J
#595000
1!
18
1J
#600000
0!
08
0J
#605000
1!
18
1J
#610000
0!
08
0J
#615000
1!
18
1J
#620000
0!
08
0J
#625000
1!
18
1J
#630000
0!
08
0J
#635000
1!
18
1J
#640000
0!
08
0J
#645000
1!
18
1J
#650000
0!
08
0J
#655000
1!
18
1J
#660000
0!
08
0J
#665000
1!
18
1J
#670000
0!
08
0J
#675000
1!
18
1J
#680000
0!
08
0J
#685000
1!
18
1J
#690000
0!
08
0J
#695000
1!
18
1J
#700000
0!
08
0J
#705000
1!
18
1J
#710000
0!
08
0J
#715000
1!
18
1J
#720000
0!
08
0J
#725000
1!
18
1J
#730000
0!
08
0J
#735000
1!
18
1J
#740000
0!
08
0J
#745000
1!
18
1J
#750000
0!
08
0J
#755000
1!
18
1J
#760000
0!
08
0J
#765000
1!
18
1J
#770000
0!
08
0J
#775000
1!
18
1J
#780000
0!
08
0J
#785000
1!
18
1J
#790000
0!
08
0J
#795000
1!
18
1J
#800000
0!
08
0J
#805000
1!
18
1J
#810000
0!
08
0J
#815000
1!
18
1J
#820000
0!
08
0J
#825000
1!
18
1J
#830000
0!
08
0J
#835000
1!
18
1J
#840000
0!
08
0J
#845000
1!
18
1J
#850000
0!
08
0J
#855000
1!
18
1J
#860000
0!
08
0J
#865000
1!
18
1J
#870000
0!
08
0J
#875000
1!
18
1J
#880000
0!
08
0J
#885000
1!
18
1J
#890000
0!
08
0J
#895000
1!
18
1J
#900000
0!
08
0J
#905000
1!
18
1J
#910000
0!
08
0J
#915000
1!
18
1J
#920000
0!
08
0J
#925000
1!
18
1J
#930000
0!
08
0J
#935000
1!
18
1J
#940000
0!
08
0J
#945000
1!
18
1J
#950000
0!
08
0J
#955000
1!
18
1J
#960000
0!
08
0J
#965000
1!
18
1J
#970000
0!
08
0J
#975000
1!
18
1J
#980000
0!
08
0J
#985000
1!
18
1J
#990000
0!
08
0J
#995000
1!
18
1J
